-7.495471090078353882e-02
1.122828479856252670e-02
6.564112752676010132e-02
-5.450750887393951416e-02
-3.590617701411247253e-02
-1.377004683017730713e-01
-4.645412787795066833e-03
-1.020907759666442871e-01
2.104237675666809082e-01
-1.241038516163825989e-01
2.157958447933197021e-01
-3.368885722011327744e-03
-1.654836237430572510e-01
-8.390529453754425049e-02
2.826733887195587158e-02
1.840263903141021729e-01
-1.786123663187026978e-01
-1.294484138488769531e-01
-5.729253590106964111e-02
4.556037113070487976e-02
8.423888683319091797e-02
-5.364244431257247925e-02
6.494665890932083130e-02
9.633719921112060547e-02
-9.630082547664642334e-02
-3.727136552333831787e-01
-1.327892392873764038e-01
-5.458409339189529419e-02
-3.444501757621765137e-02
-8.853446692228317261e-03
-4.038470610976219177e-02
8.185326308012008667e-02
-1.757280528545379639e-01
-5.939211696386337280e-02
3.102787584066390991e-02
1.572967767715454102e-01
-3.270091861486434937e-02
-9.933789819478988647e-02
1.497589200735092163e-01
-2.242236398160457611e-02
-2.894966304302215576e-01
1.460925862193107605e-02
6.873814761638641357e-02
2.278074026107788086e-01
1.457162350416183472e-01
9.472536854445934296e-03
2.467753924429416656e-02
-1.087942644953727722e-01
1.377185583114624023e-01
-2.089835405349731445e-01
-1.834197901189327240e-02
8.208745718002319336e-02
9.963507205247879028e-02
3.889592736959457397e-02
8.100115507841110229e-02
-8.032265305519104004e-02
8.562757074832916260e-02
1.209858804941177368e-01
-2.171132117509841919e-01
-2.874650433659553528e-02
3.323195129632949829e-02
-1.309095174074172974e-01
-4.692177474498748779e-02
-1.174540370702743530e-01
2.083749324083328247e-01
1.479933410882949829e-01
-1.199468150734901428e-01
-1.477477550506591797e-01
1.012917980551719666e-01
-1.762262880802154541e-01
-6.145283952355384827e-02
9.543514996767044067e-02
-1.335190534591674805e-01
-2.114229351282119751e-01
-3.098717927932739258e-01
-3.494775295257568359e-02
3.430136144161224365e-01
1.154969856142997742e-01
-1.637522131204605103e-01
6.573338806629180908e-02
-3.271395340561866760e-02
1.600844785571098328e-02
8.069172501564025879e-02
1.868526339530944824e-01
5.559882149100303650e-03
1.108636558055877686e-01
-1.345349997282028198e-01
1.461416110396385193e-02
1.898349225521087646e-01
-9.214282035827636719e-02
3.490392491221427917e-02
2.195933163166046143e-01
1.083792094141244888e-02
8.398105949163436890e-02
-2.078887447714805603e-02
-1.162528339773416519e-02
-6.960828602313995361e-02
4.857033863663673401e-02
-1.955789774656295776e-01
-9.154066443443298340e-03
4.132259637117385864e-02
2.984482049942016602e-02
-5.302391946315765381e-03
3.727230429649353027e-02
-1.585565954446792603e-01
4.485098272562026978e-02
1.733177527785301208e-02
-2.773677557706832886e-02
5.493488162755966187e-02
2.849067095667123795e-03
-8.186573535203933716e-02
-1.408856660127639771e-01
4.362710565328598022e-02
-2.593817412853240967e-01
1.423766762018203735e-01
2.013617157936096191e-01
2.015030570328235626e-02
1.022358089685440063e-01
2.331852912902832031e-02
7.426807284355163574e-02
-4.037522524595260620e-02
-5.000427365303039551e-02
-1.772146224975585938e-01
3.722764179110527039e-02
1.095574200153350830e-01
-5.060862749814987183e-04
3.180364519357681274e-02
-4.967998713254928589e-02
