-1.301462650299072266e-01
9.615501761436462402e-02
7.649780064821243286e-02
3.657506546005606651e-03
-2.840329147875308990e-02
-1.004189401865005493e-01
-2.467471174895763397e-03
-1.283083409070968628e-01
1.374834477901458740e-01
-6.562275439500808716e-02
3.413938283920288086e-01
-4.994793608784675598e-02
-2.139310836791992188e-01
-1.943843364715576172e-01
7.909576408565044403e-03
1.612125635147094727e-01
-1.621393114328384399e-01
-1.134951487183570862e-01
-1.404722500592470169e-02
3.374889492988586426e-04
1.510541141033172607e-01
2.165629528462886810e-02
6.711459159851074219e-02
4.366743192076683044e-02
-8.985809981822967529e-02
-3.440591990947723389e-01
-7.880660146474838257e-02
-1.106798350811004639e-01
5.886569619178771973e-02
-9.250972419977188110e-02
-6.196884438395500183e-02
3.298542648553848267e-02
-2.505758702754974365e-01
-7.913403213024139404e-02
-6.645293533802032471e-02
5.883013829588890076e-02
-1.337283477187156677e-02
3.335820510983467102e-04
1.837128549814224243e-01
1.729170978069305420e-02
-2.343104183673858643e-01
-8.539762347936630249e-03
-1.985922828316688538e-02
2.107955962419509888e-01
1.339778304100036621e-01
2.571359835565090179e-02
1.084284484386444092e-02
-9.765736758708953857e-02
5.029715597629547119e-03
-2.341023385524749756e-01
5.572097003459930420e-02
1.322050839662551880e-01
1.037374287843704224e-01
1.420723274350166321e-02
2.820019423961639404e-02
-1.668822169303894043e-01
-3.929001837968826294e-02
1.500772871077060699e-02
-1.545650810003280640e-01
3.029466420412063599e-02
5.932219326496124268e-02
-6.296133995056152344e-02
-4.430536925792694092e-02
-6.717815995216369629e-02
1.995121538639068604e-01
6.235282868146896362e-02
-1.012212783098220825e-01
-1.095369160175323486e-01
8.191837370395660400e-02
-1.105994358658790588e-01
-7.463543117046356201e-02
1.505686491727828979e-01
-1.017771065235137939e-01
-1.909148395061492920e-01
-3.819743692874908447e-01
5.136155337095260620e-02
4.005555212497711182e-01
4.392854496836662292e-02
-2.271519601345062256e-01
1.644140109419822693e-02
-1.149281188845634460e-01
-4.705855157226324081e-03
1.165389642119407654e-01
5.569204688072204590e-02
-1.181822642683982849e-02
8.215272426605224609e-02
-1.887689083814620972e-01
2.416883781552314758e-02
1.250517070293426514e-01
-8.332531899213790894e-02
-4.826321825385093689e-02
2.222904115915298462e-01
-2.217588573694229126e-02
1.334604918956756592e-01
2.518956363201141357e-02
9.277856349945068359e-02
-1.197748910635709763e-02
2.543153241276741028e-03
-1.106607764959335327e-01
-6.774285342544317245e-03
7.952608168125152588e-02
-5.187559872865676880e-02
-6.454642117023468018e-02
8.059060573577880859e-02
-1.375841051340103149e-01
8.110847324132919312e-02
4.245853424072265625e-02
-2.790697664022445679e-02
-1.351875998079776764e-02
-1.747150789014995098e-03
-1.210349798202514648e-01
-5.259777978062629700e-02
7.767347991466522217e-02
-2.491548508405685425e-01
2.271100282669067383e-01
1.927537322044372559e-01
-1.455655135214328766e-02
1.342697143554687500e-01
8.889572322368621826e-02
6.990409642457962036e-02
-8.987790346145629883e-02
-7.024710625410079956e-02
-1.672332286834716797e-01
-4.061183705925941467e-02
9.586147218942642212e-02
2.034537494182586670e-03
6.415417790412902832e-02
8.685419335961341858e-03
