-6.087043508887290955e-02
8.117336034774780273e-02
1.994118280708789825e-02
1.218565367162227631e-02
-2.675256505608558655e-02
-4.608917236328125000e-02
-1.527103781700134277e-02
-1.433266997337341309e-01
1.944143474102020264e-01
-8.188076317310333252e-02
2.883820533752441406e-01
-1.303292252123355865e-02
-2.407383471727371216e-01
-1.915996819734573364e-01
-1.793261244893074036e-02
1.203647628426551819e-01
-1.459507346153259277e-01
-1.299558579921722412e-01
6.393554620444774628e-03
1.380883157253265381e-02
1.254154592752456665e-01
-9.202500805258750916e-03
1.221822649240493774e-01
5.034917965531349182e-02
-8.462676405906677246e-02
-3.766579031944274902e-01
-1.189439147710800171e-01
-1.002013683319091797e-01
6.471448391675949097e-02
-1.037350445985794067e-01
-8.705659955739974976e-02
5.085619911551475525e-02
-1.891584694385528564e-01
-8.213640749454498291e-02
-5.365654453635215759e-02
4.076069965958595276e-02
-4.235455021262168884e-02
-3.298107907176017761e-02
1.996112763881683350e-01
1.166524272412061691e-02
-1.922121495008468628e-01
-7.381661236286163330e-02
-1.104603521525859833e-03
2.392357289791107178e-01
1.434898823499679565e-01
7.899418473243713379e-02
1.530510932207107544e-02
-9.927442669868469238e-02
4.299945011734962463e-02
-2.395584434270858765e-01
4.857883974909782410e-02
1.549518257379531860e-01
6.061642244458198547e-02
1.308225654065608978e-02
4.955165460705757141e-02
-1.573354303836822510e-01
-9.786961600184440613e-04
-5.578590556979179382e-03
-1.360039114952087402e-01
1.612050272524356842e-02
1.555723883211612701e-02
-3.667347133159637451e-02
-3.764115273952484131e-02
-2.068843133747577667e-02
2.112504839897155762e-01
6.134387105703353882e-02
-7.974142581224441528e-02
-8.859098702669143677e-02
8.863868564367294312e-02
-1.377662718296051025e-01
-4.934476688504219055e-02
1.289371103048324585e-01
-1.237331777811050415e-01
-1.950198560953140259e-01
-3.296867907047271729e-01
-1.334276609122753143e-02
4.416006207466125488e-01
5.312930420041084290e-02
-1.530495733022689819e-01
1.636483147740364075e-02
-1.168680861592292786e-01
-2.763170376420021057e-02
1.140296906232833862e-01
2.521889843046665192e-02
-7.513330131769180298e-02
4.755911976099014282e-02
-2.413496226072311401e-01
2.681709453463554382e-02
1.557693183422088623e-01
-9.577560424804687500e-02
-5.434848368167877197e-02
1.887956261634826660e-01
-3.845680505037307739e-03
1.273506581783294678e-01
5.731774121522903442e-02
1.372264027595520020e-01
-6.011499091982841492e-02
3.682100027799606323e-02
-1.530998498201370239e-01
-3.371473401784896851e-02
1.367184072732925415e-01
-4.686562344431877136e-02
-4.602028802037239075e-02
9.039068967103958130e-02
-1.469258517026901245e-01
7.180782407522201538e-02
5.908737704157829285e-02
-4.652364179491996765e-02
3.785944730043411255e-02
-2.836412377655506134e-02
-1.736611425876617432e-01
-8.328893035650253296e-02
9.152755886316299438e-02
-2.364495843648910522e-01
1.590814590454101562e-01
1.755723506212234497e-01
1.487556565552949905e-02
1.413085460662841797e-01
6.725040078163146973e-02
7.967723160982131958e-02
-1.014990657567977905e-01
-9.207537770271301270e-02
-1.406572312116622925e-01
-5.565770715475082397e-02
6.185025349259376526e-02
3.951460495591163635e-02
4.054507240653038025e-02
-1.920452900230884552e-02
