-1.242241933941841125e-01
7.808093726634979248e-02
5.248579010367393494e-02
4.629816859960556030e-02
-6.937175989151000977e-02
-7.746762037277221680e-02
-4.489774256944656372e-02
-1.216048449277877808e-01
1.560432463884353638e-01
-8.261397480964660645e-02
2.767910361289978027e-01
-6.339228153228759766e-02
-2.346833199262619019e-01
-1.568620800971984863e-01
8.142759092152118683e-03
2.077809870243072510e-01
-1.642230749130249023e-01
-1.626300662755966187e-01
-1.641298644244670868e-02
9.756319224834442139e-03
6.509471684694290161e-02
-2.502968162298202515e-02
3.092892095446586609e-02
4.125333204865455627e-02
-3.164989501237869263e-02
-4.209233820438385010e-01
-1.126562356948852539e-01
-4.347207397222518921e-02
3.184149414300918579e-02
-8.811499923467636108e-02
-1.053930073976516724e-01
7.925849407911300659e-02
-1.924491673707962036e-01
-9.358087182044982910e-02
2.820596098899841309e-03
1.149649992585182190e-01
-3.552863746881484985e-02
-3.885078430175781250e-02
1.386581957340240479e-01
-7.092483341693878174e-02
-1.712884306907653809e-01
-3.950053453445434570e-02
7.520210742950439453e-02
2.611961066722869873e-01
1.944849193096160889e-01
6.746926903724670410e-02
4.266418889164924622e-02
-9.973537921905517578e-02
1.403528172522783279e-02
-1.710777133703231812e-01
-1.918745413422584534e-02
1.271901875734329224e-01
1.048923209309577942e-01
5.174664780497550964e-02
-1.852883771061897278e-02
-1.650101840496063232e-01
-9.613188914954662323e-03
3.415898978710174561e-02
-1.306362450122833252e-01
-7.292960304766893387e-03
6.969408690929412842e-02
-1.172159835696220398e-01
-7.464547455310821533e-02
-3.801895678043365479e-02
2.884583473205566406e-01
2.990442886948585510e-02
-9.220655262470245361e-02
-1.539461016654968262e-01
1.228162273764610291e-01
-1.297086626291275024e-01
-4.557095468044281006e-02
3.074625879526138306e-02
-1.630834639072418213e-01
-1.972288787364959717e-01
-3.358935117721557617e-01
5.598735064268112183e-03
4.022955596446990967e-01
3.008325584232807159e-03
-1.643407940864562988e-01
1.128150448203086853e-01
-6.799707561731338501e-02
2.087947446852922440e-03
7.447774708271026611e-02
7.262927293777465820e-02
-2.288468368351459503e-02
1.741575077176094055e-02
-2.206994146108627319e-01
5.344723910093307495e-02
1.984631419181823730e-01
-1.091402918100357056e-01
7.865257561206817627e-03
1.064161509275436401e-01
-5.548263899981975555e-03
6.329276412725448608e-02
4.771506786346435547e-02
7.107545435428619385e-02
-5.709620192646980286e-03
6.051843985915184021e-02
-1.703675836324691772e-01
-9.760750457644462585e-03
6.122572720050811768e-02
-5.699948221445083618e-02
-2.608394064009189606e-02
3.960111364722251892e-02
-1.232694089412689209e-01
7.719555497169494629e-02
7.433615624904632568e-02
1.625138521194458008e-02
1.775981858372688293e-02
-3.272791951894760132e-02
-1.578859090805053711e-01
-8.661495894193649292e-02
1.115831285715103149e-01
-2.640240490436553955e-01
2.023919522762298584e-01
1.966335773468017578e-01
5.232023075222969055e-02
1.771302074193954468e-01
5.385069549083709717e-02
1.359078139066696167e-01
-5.062746629118919373e-02
-3.667293861508369446e-02
-1.632286608219146729e-01
-1.611110009253025055e-02
6.916522979736328125e-02
3.390964120626449585e-02
6.673294305801391602e-02
4.651622846722602844e-02
