-1.184383705258369446e-01
8.835747838020324707e-02
3.633169829845428467e-02
4.415121302008628845e-02
-6.395514309406280518e-02
-6.809663027524948120e-02
-2.169923111796379089e-02
-1.200982928276062012e-01
1.409286707639694214e-01
-6.015109643340110779e-02
2.454122900962829590e-01
-6.542430073022842407e-02
-2.103026360273361206e-01
-1.132915988564491272e-01
-2.529051154851913452e-02
1.872778683900833130e-01
-1.735463589429855347e-01
-1.396051794290542603e-01
-5.879212170839309692e-03
3.194587677717208862e-02
9.476014971733093262e-02
-5.282777361571788788e-03
2.214002422988414764e-02
4.866821318864822388e-02
-4.974520206451416016e-02
-4.000988304615020752e-01
-1.398846060037612915e-01
-4.277451708912849426e-02
2.029911056160926819e-02
-8.952514827251434326e-02
-6.623676419258117676e-02
8.617965131998062134e-02
-1.865639537572860718e-01
-6.593517959117889404e-02
1.348153967410326004e-02
1.356421858072280884e-01
-4.414147883653640747e-02
-3.836284950375556946e-02
1.362127065658569336e-01
-4.471117258071899414e-02
-1.291925013065338135e-01
-3.269041329622268677e-02
9.401391446590423584e-02
2.905226647853851318e-01
1.833175569772720337e-01
8.297473192214965820e-02
3.857905045151710510e-02
-7.459359616041183472e-02
1.687948033213615417e-02
-1.595667004585266113e-01
-2.265631966292858124e-02
1.085972934961318970e-01
9.676785767078399658e-02
9.922231733798980713e-02
-2.302495390176773071e-02
-1.939814984798431396e-01
1.836876198649406433e-02
3.183895722031593323e-02
-1.586256772279739380e-01
6.548858247697353363e-03
4.751202091574668884e-02
-1.291191577911376953e-01
-6.201854348182678223e-02
-1.674926839768886566e-02
2.879370152950286865e-01
3.879589959979057312e-02
-9.279986470937728882e-02
-1.432982981204986572e-01
1.415419876575469971e-01
-1.447756141424179077e-01
-2.400480955839157104e-02
1.106565538793802261e-02
-1.695176064968109131e-01
-1.917622387409210205e-01
-3.153623044490814209e-01
1.667703315615653992e-02
3.871251046657562256e-01
2.674795873463153839e-02
-1.460441499948501587e-01
1.008156612515449524e-01
-3.861863166093826294e-02
2.587015554308891296e-02
6.859009712934494019e-02
7.405825704336166382e-02
-3.176387399435043335e-02
3.238126263022422791e-02
-2.189759612083435059e-01
6.276439130306243896e-02
1.772084087133407593e-01
-1.035214439034461975e-01
-2.855569357052445412e-03
1.107358261942863464e-01
-1.063324324786663055e-02
4.647649824619293213e-02
6.173226982355117798e-02
4.962181672453880310e-02
-1.559370383620262146e-02
6.059874594211578369e-02
-1.658918857574462891e-01
8.078880608081817627e-03
3.395402431488037109e-02
-8.098557591438293457e-02
-2.450378425419330597e-02
5.389636382460594177e-02
-1.070549041032791138e-01
8.387238532304763794e-02
6.779778748750686646e-02
-6.634704768657684326e-04
-2.835912257432937622e-02
-2.746591530740261078e-02
-1.856904327869415283e-01
-7.240275293588638306e-02
1.204260364174842834e-01
-2.741259634494781494e-01
2.158796340227127075e-01
1.912567317485809326e-01
1.880190148949623108e-02
1.920004934072494507e-01
4.112670943140983582e-02
1.629158407449722290e-01
-5.454110726714134216e-02
-1.963692158460617065e-02
-1.485946476459503174e-01
-1.412198599427938461e-02
6.240186840295791626e-02
4.633534327149391174e-02
5.960609018802642822e-02
3.841325268149375916e-02
