-7.348846644163131714e-02
7.526288926601409912e-02
7.948175817728042603e-02
-7.513886690139770508e-02
-6.309468299150466919e-02
5.886930972337722778e-02
-5.159762129187583923e-02
-8.849660307168960571e-02
2.127065360546112061e-01
-2.121378779411315918e-01
2.639181613922119141e-01
-4.104977473616600037e-02
-2.524364888668060303e-01
-2.186683751642704010e-02
-3.848958387970924377e-02
1.640975475311279297e-01
-1.442201137542724609e-01
-1.424847543239593506e-01
-7.205328345298767090e-02
-1.640187390148639679e-02
7.370950281620025635e-02
3.066760860383510590e-02
-3.933075070381164551e-02
-8.502756245434284210e-03
-9.483078867197036743e-02
-4.230822324752807617e-01
-1.319689005613327026e-01
-1.748559623956680298e-02
-6.647409498691558838e-02
-6.709222495555877686e-02
-4.490283131599426270e-02
1.649235002696514130e-02
-2.218883931636810303e-01
-3.438128530979156494e-02
-3.012311644852161407e-02
1.210118830204010010e-01
-4.916861653327941895e-02
-8.279630541801452637e-02
9.640065580606460571e-02
3.226531669497489929e-03
-2.527747452259063721e-01
1.144079491496086121e-01
7.474633306264877319e-02
2.640831768512725830e-01
1.413294672966003418e-01
2.298814058303833008e-02
-2.635492384433746338e-02
-1.073387935757637024e-01
6.251631677150726318e-02
-2.228179425001144409e-01
-5.879875272512435913e-03
1.307146698236465454e-01
5.075053125619888306e-02
3.435951471328735352e-02
3.299401700496673584e-02
-1.364338845014572144e-01
-1.520962640643119812e-02
1.102670505642890930e-01
-1.333880126476287842e-01
2.124963141977787018e-02
6.483948230743408203e-02
-1.328600943088531494e-01
-4.763412103056907654e-02
-8.681082725524902344e-02
2.222775816917419434e-01
1.349656879901885986e-01
-1.245899125933647156e-01
-2.039755731821060181e-01
9.867100417613983154e-02
-1.354010999202728271e-01
-4.738965537399053574e-03
8.394271880388259888e-02
-1.719184368848800659e-01
-2.334200739860534668e-01
-2.514852881431579590e-01
9.565541148185729980e-02
4.322409629821777344e-01
7.172763347625732422e-02
-1.541259586811065674e-01
8.299025893211364746e-02
-4.657730087637901306e-02
3.330577164888381958e-02
1.440121084451675415e-01
1.741930693387985229e-01
7.377119362354278564e-02
2.671199105679988861e-02
-1.153717413544654846e-01
8.254692703485488892e-02
2.420197576284408569e-01
-8.292041718959808350e-02
-3.593608736991882324e-02
2.158260643482208252e-01
-4.150748997926712036e-02
4.768443107604980469e-02
1.462246477603912354e-02
3.519833832979202271e-02
-9.536983072757720947e-02
1.995197124779224396e-02
-2.083207219839096069e-01
-2.552755177021026611e-06
1.518988702446222305e-02
-8.507671765983104706e-03
-7.420020550489425659e-02
6.246194988489151001e-02
-1.041124761104583740e-01
8.648133277893066406e-02
1.527180057018995285e-02
-3.309788554906845093e-02
5.207273364067077637e-02
-2.987433411180973053e-02
-8.230506628751754761e-02
-7.507329434156417847e-02
1.296118646860122681e-01
-2.838496565818786621e-01
1.810288578271865845e-01
1.719408780336380005e-01
4.471920803189277649e-02
1.618487685918807983e-01
1.189064458012580872e-01
7.758796215057373047e-02
1.289173029363155365e-02
-1.434818934649229050e-02
-2.502951025962829590e-01
-1.946954056620597839e-02
5.964056774973869324e-02
1.187750510871410370e-02
6.478277593851089478e-02
-5.291772261261940002e-02
