-6.591728329658508301e-02
7.863096147775650024e-02
7.850217819213867188e-02
-8.248180896043777466e-02
-9.276729822158813477e-02
6.711617112159729004e-02
-6.035516411066055298e-02
-1.096915453672409058e-01
2.075465768575668335e-01
-2.209150493144989014e-01
2.517605125904083252e-01
-4.323618859052658081e-02
-2.399667799472808838e-01
-6.503472570329904556e-03
-3.029221482574939728e-02
1.591107249259948730e-01
-1.412716060876846313e-01
-1.410951614379882812e-01
-5.869382619857788086e-02
-1.026109233498573303e-02
6.602060794830322266e-02
2.314420975744724274e-02
1.507873064838349819e-03
-1.009729783982038498e-02
-1.011315733194351196e-01
-4.278742969036102295e-01
-1.372896730899810791e-01
-2.551214024424552917e-02
-7.707766443490982056e-02
-5.069709196686744690e-02
-6.156951189041137695e-02
1.539644319564104080e-02
-2.043526321649551392e-01
-9.718980640172958374e-03
-2.939406782388687134e-02
8.319812268018722534e-02
-5.720895528793334961e-02
-7.211082428693771362e-02
1.008288934826850891e-01
-9.193966165184974670e-03
-2.709465026855468750e-01
1.006220579147338867e-01
6.817957758903503418e-02
2.326650172472000122e-01
1.509570628404617310e-01
3.320485725998878479e-02
-2.674925141036510468e-02
-1.066053956747055054e-01
5.696873739361763000e-02
-2.077292203903198242e-01
1.644341275095939636e-03
1.434215307235717773e-01
3.189604729413986206e-02
2.358489856123924255e-02
2.807928435504436493e-02
-1.065879166126251221e-01
-8.703540079295635223e-03
1.039661839604377747e-01
-1.218220591545104980e-01
6.059855222702026367e-03
8.115833997726440430e-02
-1.142035648226737976e-01
-5.948965996503829956e-02
-9.858448058366775513e-02
2.308628857135772705e-01
1.564484536647796631e-01
-1.243476197123527527e-01
-2.245915979146957397e-01
7.757942378520965576e-02
-1.439445018768310547e-01
-3.850296512246131897e-02
7.994879037141799927e-02
-1.848588883876800537e-01
-2.318571507930755615e-01
-2.318647950887680054e-01
6.206157058477401733e-02
4.143446087837219238e-01
8.266280591487884521e-02
-1.517703682184219360e-01
7.382813096046447754e-02
-5.703698843717575073e-02
3.679684549570083618e-02
1.299484521150588989e-01
1.617122143507003784e-01
5.535470694303512573e-02
2.775815874338150024e-02
-1.055673286318778992e-01
5.317695438861846924e-02
2.377384006977081299e-01
-9.489995986223220825e-02
-4.173648729920387268e-02
2.319521456956863403e-01
-4.251655191183090210e-02
5.064881592988967896e-02
1.077294256538152695e-02
4.362148419022560120e-02
-9.281373023986816406e-02
2.873742394149303436e-02
-1.946335583925247192e-01
-1.416044216603040695e-02
2.718328684568405151e-02
-1.286493800580501556e-02
-7.376451790332794189e-02
7.501817494630813599e-02
-1.437105983495712280e-01
1.224693581461906433e-01
-1.463875640183687210e-02
-8.641282096505165100e-03
6.860757619142532349e-02
-2.198007516562938690e-02
-7.394027709960937500e-02
-7.244082540273666382e-02
1.260695308446884155e-01
-2.821562588214874268e-01
1.698910146951675415e-01
1.748327165842056274e-01
5.182243883609771729e-02
1.502963900566101074e-01
1.130497157573699951e-01
7.638512551784515381e-02
-9.572263807058334351e-04
3.361859358847141266e-03
-2.607803940773010254e-01
-3.039778210222721100e-02
6.949217617511749268e-02
-6.834152154624462128e-03
5.726930126547813416e-02
-3.924387693405151367e-02
