-1.391491144895553589e-01
6.162478774785995483e-02
6.143386662006378174e-02
-3.646108880639076233e-02
-2.041730470955371857e-02
-1.285195499658584595e-01
1.203336752951145172e-02
-1.751138120889663696e-01
1.198057904839515686e-01
-8.966575562953948975e-02
2.257015705108642578e-01
-1.027670800685882568e-01
-1.696562170982360840e-01
-1.440964192152023315e-01
1.346337329596281052e-02
1.605233848094940186e-01
-1.721612811088562012e-01
-1.223372370004653931e-01
-6.315451860427856445e-02
-9.573196060955524445e-03
1.180583015084266663e-01
-3.114758431911468506e-02
1.309324428439140320e-02
4.747072979807853699e-02
-9.780229628086090088e-02
-3.619028031826019287e-01
-1.279762387275695801e-01
-1.140739470720291138e-01
9.712707251310348511e-02
-1.746169477701187134e-02
-6.476167589426040649e-02
1.946507394313812256e-02
-2.507686913013458252e-01
-1.074465811252593994e-01
-4.528795182704925537e-02
8.133194595575332642e-02
4.746490344405174255e-02
-3.484731912612915039e-02
1.665272861719131470e-01
-3.251375630497932434e-02
-2.202185690402984619e-01
7.634752243757247925e-02
3.750248253345489502e-02
2.441476285457611084e-01
2.459122538566589355e-01
3.223309293389320374e-02
5.742494761943817139e-02
-1.097912788391113281e-01
9.224921464920043945e-02
-1.383140236139297485e-01
-1.084615290164947510e-02
9.816822409629821777e-02
1.071847304701805115e-01
3.412897139787673950e-02
-2.486824057996273041e-03
-1.207483634352684021e-01
1.881945133209228516e-02
7.767689228057861328e-02
-2.249967604875564575e-01
5.666367709636688232e-02
9.784013032913208008e-02
-5.427411943674087524e-02
-2.317152358591556549e-02
-2.357050031423568726e-02
2.379599362611770630e-01
2.193165197968482971e-02
-1.387692838907241821e-01
-1.124943867325782776e-01
1.145495921373367310e-01
-1.899801194667816162e-01
6.557258311659097672e-03
3.864002600312232971e-02
-1.789294034242630005e-01
-1.616550385951995850e-01
-3.915095329284667969e-01
3.537566959857940674e-02
3.751689195632934570e-01
6.649833917617797852e-02
-2.169254720211029053e-01
6.913010776042938232e-02
-9.745496511459350586e-02
2.667318284511566162e-02
1.673250794410705566e-01
1.315356492996215820e-01
1.290497370064258575e-02
4.376108199357986450e-02
-1.278778612613677979e-01
3.302469849586486816e-02
1.938076615333557129e-01
-5.183993652462959290e-02
3.244286635890603065e-03
2.289248555898666382e-01
-1.426455006003379822e-02
3.078410774469375610e-02
-1.785785518586635590e-02
8.411031961441040039e-02
-8.574450761079788208e-02
-2.519461698830127716e-02
-9.965115040540695190e-02
3.842005506157875061e-03
5.067618936300277710e-02
-2.293529175221920013e-02
-1.203524880111217499e-04
1.322213262319564819e-01
-1.646345257759094238e-01
1.132644787430763245e-01
-1.357967406511306763e-02
3.859575092792510986e-02
-2.329614013433456421e-02
-4.762951657176017761e-02
-5.576507747173309326e-02
-6.629201769828796387e-02
9.470526874065399170e-02
-1.959732472896575928e-01
1.651215255260467529e-01
2.290844917297363281e-01
-3.474149480462074280e-02
8.623543381690979004e-02
5.230844020843505859e-02
5.613275617361068726e-02
-5.058704316616058350e-02
3.613113611936569214e-02
-2.005241513252258301e-01
4.574888385832309723e-03
7.651057839393615723e-02
-2.434592694044113159e-02
1.147240251302719116e-01
1.123101823031902313e-02
