-5.634684115648269653e-02
7.483360916376113892e-02
8.596707135438919067e-02
-3.710609301924705505e-02
-9.596899151802062988e-02
-7.772665470838546753e-02
-5.852207168936729431e-02
-1.276626288890838623e-01
1.697820425033569336e-01
-1.385554373264312744e-01
2.748199999332427979e-01
-6.464079767465591431e-02
-2.157339751720428467e-01
-1.218219622969627380e-01
-7.576879113912582397e-03
2.356743067502975464e-01
-1.474494636058807373e-01
-1.679835319519042969e-01
-8.262096345424652100e-02
3.643907979130744934e-02
4.591331630945205688e-02
-5.398282036185264587e-02
6.984261423349380493e-02
3.206579014658927917e-02
-7.032480835914611816e-02
-4.263505935668945312e-01
-1.133293956518173218e-01
-6.660215556621551514e-02
9.427134878933429718e-03
-1.888532750308513641e-02
-9.251818060874938965e-02
7.593455165624618530e-02
-2.007815390825271606e-01
-6.977351009845733643e-02
2.419145405292510986e-02
1.297855824232101440e-01
-2.449528081342577934e-03
-7.888312637805938721e-02
1.699286699295043945e-01
-8.808200061321258545e-02
-2.648234963417053223e-01
-2.230580337345600128e-02
6.912378966808319092e-02
1.967876702547073364e-01
1.496953964233398438e-01
3.764826431870460510e-02
9.007199108600616455e-02
-1.177436038851737976e-01
8.054631948471069336e-02
-1.794274449348449707e-01
7.112241536378860474e-02
7.604344189167022705e-02
8.740813285112380981e-02
2.993044629693031311e-02
5.610828101634979248e-02
-1.920057684183120728e-01
-1.797650009393692017e-02
1.865691542625427246e-01
-1.453523337841033936e-01
-3.572446107864379883e-02
4.566512256860733032e-02
-7.696281373500823975e-02
-4.770493134856224060e-02
-1.269195675849914551e-01
3.171035349369049072e-01
1.362302750349044800e-01
-1.168431341648101807e-01
-1.667218506336212158e-01
1.707545220851898193e-01
-9.029915183782577515e-02
6.771287880837917328e-03
2.793039008975028992e-02
-1.834486424922943115e-01
-1.519647389650344849e-01
-3.391332030296325684e-01
-8.700720965862274170e-03
3.340305089950561523e-01
3.922736644744873047e-02
-1.666886657476425171e-01
5.417321622371673584e-02
-8.124445378780364990e-02
2.578133344650268555e-02
4.584891349077224731e-02
1.004771664738655090e-01
1.439153030514717102e-02
6.074900552630424500e-02
-1.526452302932739258e-01
2.305182069540023804e-02
2.096161395311355591e-01
-1.400670260190963745e-01
4.564066231250762939e-02
1.676309257745742798e-01
-4.761198535561561584e-02
4.018756002187728882e-02
-4.185786843299865723e-02
-3.800051752477884293e-03
-9.325528144836425781e-02
5.599544197320938110e-02
-1.890835762023925781e-01
2.120674401521682739e-02
6.576616317033767700e-03
2.263656631112098694e-02
-3.138792887330055237e-02
6.797198951244354248e-02
-1.464084386825561523e-01
-1.222745608538389206e-02
5.838160403072834015e-03
2.769702114164829254e-03
6.321538705378770828e-03
-4.491095244884490967e-02
-9.846015274524688721e-02
-1.440439373254776001e-01
1.087881550192832947e-01
-2.352018803358078003e-01
1.950100213289260864e-01
1.687615662813186646e-01
4.685464873909950256e-02
1.546287238597869873e-01
8.948712795972824097e-02
9.382557868957519531e-02
6.690306589007377625e-03
-6.696893274784088135e-02
-2.302438020706176758e-01
3.960533440113067627e-02
1.407508999109268188e-01
-7.062548305839300156e-03
3.341000899672508240e-02
4.168706014752388000e-02
