-1.214101612567901611e-01
-6.924451328814029694e-03
1.830470934510231018e-02
-7.436203211545944214e-02
-1.311082243919372559e-01
-9.129323065280914307e-02
-3.894944116473197937e-02
-6.037140265107154846e-02
1.900084614753723145e-01
-1.384360343217849731e-01
1.206396818161010742e-01
-2.854672074317932129e-02
-1.677024066448211670e-01
-7.492202520370483398e-02
3.492687642574310303e-02
2.298801839351654053e-01
-1.890351027250289917e-01
-1.724101006984710693e-01
-1.480199303478002548e-02
-3.771493956446647644e-02
2.390608424320816994e-03
-1.170576084405183792e-02
8.710701018571853638e-03
9.982591122388839722e-02
-1.569034010171890259e-01
-3.542732000350952148e-01
-7.428630441427230835e-02
-1.365066040307283401e-02
-3.887360915541648865e-02
-5.044027790427207947e-02
-1.409674435853958130e-01
1.251082867383956909e-01
-1.823034733533859253e-01
-1.169810146093368530e-01
9.562279284000396729e-02
2.049819231033325195e-01
-1.375727914273738861e-02
-8.425237983465194702e-02
1.397718638181686401e-01
-2.834046259522438049e-02
-2.909472584724426270e-01
1.917314901947975159e-02
1.494449526071548462e-01
2.169707566499710083e-01
2.269905358552932739e-01
5.152261629700660706e-02
-4.640490934252738953e-02
-8.468614518642425537e-02
1.201742216944694519e-01
-2.689959108829498291e-01
4.090183228254318237e-02
8.157307654619216919e-02
1.186594273895025253e-02
6.887439638376235962e-02
3.564310260117053986e-03
-1.538750231266021729e-01
2.229930646717548370e-02
1.122896820306777954e-01
-2.396475821733474731e-01
-5.167413502931594849e-02
5.388969928026199341e-02
-1.566529870033264160e-01
-4.231954924762248993e-03
-6.979057192802429199e-02
2.389296740293502808e-01
1.760272532701492310e-01
-1.104835122823715210e-01
-1.621340215206146240e-01
1.528635174036026001e-01
-2.007679194211959839e-01
-3.164331242442131042e-02
4.386872798204421997e-02
-6.522347778081893921e-02
-2.035216689109802246e-01
-3.129467666149139404e-01
1.126513723284006119e-02
2.960819900035858154e-01
1.834504604339599609e-01
-1.219489276409149170e-01
6.231768801808357239e-02
-3.021441213786602020e-02
1.233636029064655304e-02
1.069292053580284119e-01
1.244399994611740112e-01
2.369119971990585327e-02
2.493398450314998627e-02
-7.769367843866348267e-02
1.251616049557924271e-02
2.162062972784042358e-01
-1.182319596409797668e-03
-1.536095142364501953e-02
1.947322338819503784e-01
3.942470625042915344e-02
5.881682038307189941e-02
6.499506533145904541e-02
1.195871978998184204e-01
-1.023279577493667603e-01
2.074844017624855042e-02
-2.311574220657348633e-01
-9.286692366003990173e-03
4.868777841329574585e-02
-2.521355263888835907e-02
5.232026800513267517e-02
1.408050805330276489e-01
-1.509607434272766113e-01
1.016246899962425232e-01
-1.657138578593730927e-02
-3.355910256505012512e-02
-1.321972813457250595e-03
2.473213151097297668e-02
-6.323514878749847412e-02
-1.092524155974388123e-01
4.594637081027030945e-02
-2.670846283435821533e-01
1.964395344257354736e-01
1.954952031373977661e-01
2.140067517757415771e-02
2.002676725387573242e-01
5.995742231607437134e-02
6.960180401802062988e-02
1.473187468945980072e-03
-8.917038142681121826e-02
-1.296839714050292969e-01
-2.380478940904140472e-02
9.403724223375320435e-02
-4.996662493795156479e-03
1.385200768709182739e-01
7.312328368425369263e-02
