-7.934834808111190796e-02
1.138281598687171936e-01
9.966106712818145752e-02
-4.385995492339134216e-02
-1.122156605124473572e-01
-5.239628627896308899e-02
-5.196006596088409424e-02
-1.704881191253662109e-01
1.587881296873092651e-01
-1.496790945529937744e-01
2.679032087326049805e-01
-4.078818857669830322e-02
-2.511630058288574219e-01
-9.641341120004653931e-02
-4.560510069131851196e-02
2.327618598937988281e-01
-1.436158865690231323e-01
-1.358576416969299316e-01
-7.274984568357467651e-02
-1.614179648458957672e-02
4.693447798490524292e-02
2.204241231083869934e-03
6.169678270816802979e-02
-1.001538336277008057e-02
-4.905036464333534241e-02
-4.123091995716094971e-01
-1.135720312595367432e-01
-7.171656191349029541e-02
3.443102538585662842e-02
-6.873333360999822617e-03
-5.967057496309280396e-02
6.222631409764289856e-02
-1.915315240621566772e-01
-9.155313670635223389e-02
1.078810729086399078e-02
1.249033212661743164e-01
-7.326147984713315964e-03
-4.586137086153030396e-02
1.554009020328521729e-01
-7.672549784183502197e-02
-2.543630301952362061e-01
-1.475840993225574493e-02
9.606115520000457764e-02
2.247176319360733032e-01
1.227129101753234863e-01
3.581572324037551880e-02
8.938895165920257568e-02
-1.394826769828796387e-01
5.640484392642974854e-02
-1.654140204191207886e-01
4.998903721570968628e-02
6.102129444479942322e-02
9.567079693078994751e-02
2.828696370124816895e-02
6.966367363929748535e-02
-1.957878321409225464e-01
-2.898372896015644073e-02
1.505961716175079346e-01
-1.322494596242904663e-01
-9.636366739869117737e-03
7.575644552707672119e-02
-7.383567839860916138e-02
-1.962127722799777985e-02
-1.122441887855529785e-01
3.097045719623565674e-01
6.038130819797515869e-02
-1.298434734344482422e-01
-1.185523420572280884e-01
1.705861240625381470e-01
-9.193635731935501099e-02
-6.652859505265951157e-03
1.322682574391365051e-02
-1.559641808271408081e-01
-1.437997221946716309e-01
-3.671107888221740723e-01
4.241578280925750732e-04
3.797213733196258545e-01
4.342022538185119629e-02
-1.408015042543411255e-01
5.957729369401931763e-02
-1.054119318723678589e-01
-5.127088166773319244e-03
6.645610928535461426e-02
1.145557910203933716e-01
3.338048234581947327e-02
5.304532125592231750e-02
-1.143995746970176697e-01
2.625444903969764709e-02
2.080056071281433105e-01
-1.548008918762207031e-01
4.119461774826049805e-02
1.898027509450912476e-01
-3.844667598605155945e-02
6.350750476121902466e-02
-5.757131800055503845e-02
4.383037239313125610e-02
-1.234390065073966980e-01
4.319150745868682861e-02
-1.788565665483474731e-01
3.017611801624298096e-02
-1.557676307857036591e-02
-2.033979445695877075e-02
-1.052143052220344543e-02
7.287368923425674438e-02
-1.687353849411010742e-01
9.555539116263389587e-03
3.352063149213790894e-02
-2.503257244825363159e-03
1.455623004585504532e-02
-2.552954107522964478e-02
-1.085077077150344849e-01
-1.386050283908843994e-01
1.456742584705352783e-01
-2.431198954582214355e-01
2.053324580192565918e-01
2.161254435777664185e-01
1.253427192568778992e-02
1.653675585985183716e-01
1.267664432525634766e-01
7.567833364009857178e-02
2.086199447512626648e-02
-7.407622039318084717e-02
-2.161770015954971313e-01
-2.316035330295562744e-03
1.200210601091384888e-01
-4.331135004758834839e-02
1.805247366428375244e-02
5.914470180869102478e-02
