-8.493128418922424316e-02
8.556935936212539673e-02
8.963271230459213257e-02
-4.687333852052688599e-02
-5.962458625435829163e-02
-8.431801944971084595e-02
-6.557399779558181763e-02
-1.451312750577926636e-01
1.774954050779342651e-01
-1.313154399394989014e-01
2.754196524620056152e-01
-4.401092603802680969e-02
-2.108695656061172485e-01
-1.216615885496139526e-01
-2.369410172104835510e-02
2.311888337135314941e-01
-1.628295332193374634e-01
-1.264041960239410400e-01
-8.094404637813568115e-02
-2.904715016484260559e-03
4.895463958382606506e-02
-4.299207404255867004e-02
7.537106424570083618e-02
2.468289807438850403e-02
-5.137050151824951172e-02
-4.245987236499786377e-01
-1.295614540576934814e-01
-7.306361198425292969e-02
2.579865977168083191e-02
1.204073545522987843e-03
-5.921569839119911194e-02
7.025608420372009277e-02
-1.860043406486511230e-01
-7.225712388753890991e-02
6.839235313236713409e-03
1.092504113912582397e-01
1.102580921724438667e-03
-6.935536116361618042e-02
1.429051160812377930e-01
-7.604044675827026367e-02
-2.378352135419845581e-01
-2.607390657067298889e-02
7.006920129060745239e-02
2.141532003879547119e-01
1.795689612627029419e-01
2.509711682796478271e-02
9.715498238801956177e-02
-1.231452599167823792e-01
7.593471556901931763e-02
-1.789447516202926636e-01
1.727617532014846802e-02
6.068862974643707275e-02
8.407187461853027344e-02
2.206691354513168335e-02
6.826701760292053223e-02
-1.792198717594146729e-01
-1.344631798565387726e-02
1.541432738304138184e-01
-1.322817355394363403e-01
-4.279696196317672729e-02
3.860913589596748352e-02
-9.637656807899475098e-02
-6.615699082612991333e-02
-1.200624033808708191e-01
3.046520352363586426e-01
1.075974926352500916e-01
-1.364252120256423950e-01
-1.412678956985473633e-01
1.768942177295684814e-01
-8.759556710720062256e-02
1.950023695826530457e-02
1.498851273208856583e-02
-1.788149774074554443e-01
-1.617920547723770142e-01
-3.540294170379638672e-01
7.047895342111587524e-04
3.510486781597137451e-01
4.497435688972473145e-02
-1.452851742506027222e-01
9.528183192014694214e-02
-9.542223066091537476e-02
3.363195061683654785e-02
3.883401677012443542e-02
1.257580369710922241e-01
4.506668075919151306e-03
6.749932467937469482e-02
-1.213707253336906433e-01
2.537294290959835052e-02
1.776509732007980347e-01
-1.434047222137451172e-01
4.894141852855682373e-02
1.739511489868164062e-01
-5.854460597038269043e-02
6.315075606107711792e-02
-4.595452919602394104e-02
4.842454101890325546e-03
-9.759399294853210449e-02
5.009688436985015869e-02
-1.861625611782073975e-01
3.066127002239227295e-02
2.697067335247993469e-03
1.338349841535091400e-02
-8.228988386690616608e-03
4.054048284888267517e-02
-1.540855914354324341e-01
1.180913113057613373e-02
2.843819558620452881e-02
4.537082277238368988e-03
1.675781235098838806e-02
-5.540466308593750000e-02
-8.473865687847137451e-02
-1.155654340982437134e-01
1.213311553001403809e-01
-2.420824766159057617e-01
1.834634244441986084e-01
1.995536684989929199e-01
4.872499406337738037e-02
1.774495244026184082e-01
1.052932739257812500e-01
8.311083912849426270e-02
9.589949622750282288e-04
-5.222882330417633057e-02
-2.124993056058883667e-01
4.521725326776504517e-02
1.170551553368568420e-01
-3.014229983091354370e-02
9.757994674146175385e-03
2.882607840001583099e-02
