-1.117273569107055664e-01
1.837663725018501282e-02
1.893386989831924438e-02
-8.383999764919281006e-02
-1.037240847945213318e-01
-9.333868324756622314e-02
-6.131324172019958496e-02
-6.976297497749328613e-02
1.800296157598495483e-01
-1.350149512290954590e-01
1.189056634902954102e-01
-2.754619531333446503e-02
-1.627224683761596680e-01
-8.590870350599288940e-02
2.385148406028747559e-02
2.282665371894836426e-01
-1.722266227006912231e-01
-1.703711748123168945e-01
-3.395396843552589417e-02
-1.344068162143230438e-02
2.316679246723651886e-02
-7.353250402957201004e-03
6.937465630471706390e-03
9.633105993270874023e-02
-1.271714866161346436e-01
-3.700585067272186279e-01
-9.377460926771163940e-02
1.316455565392971039e-02
-4.191397503018379211e-02
-4.063356295228004456e-02
-1.333079338073730469e-01
8.354140073060989380e-02
-2.004548609256744385e-01
-1.176470667123794556e-01
9.102191776037216187e-02
1.860783100128173828e-01
2.587683033198118210e-03
-9.886641055345535278e-02
1.450194716453552246e-01
-2.086061611771583557e-02
-2.973140180110931396e-01
1.928626932203769684e-02
1.519547998905181885e-01
2.116225957870483398e-01
2.298950254917144775e-01
4.971600696444511414e-02
-2.734745480120182037e-02
-8.845043182373046875e-02
1.344753801822662354e-01
-2.242836803197860718e-01
4.599097371101379395e-02
7.164084166288375854e-02
3.077881224453449249e-02
6.897354871034622192e-02
-6.196636706590652466e-03
-1.527956426143646240e-01
3.481087833642959595e-02
1.403353512287139893e-01
-2.342141270637512207e-01
-6.427238136529922485e-02
4.873477667570114136e-02
-1.643685549497604370e-01
-2.634233608841896057e-02
-6.310740858316421509e-02
2.318491190671920776e-01
1.614301353693008423e-01
-1.030890122056007385e-01
-2.097444087266921997e-01
1.594852358102798462e-01
-1.867459118366241455e-01
-2.597889304161071777e-02
4.428376257419586182e-02
-8.016438782215118408e-02
-1.865427047014236450e-01
-3.340919911861419678e-01
1.469118148088455200e-02
2.963992357254028320e-01
1.711347848176956177e-01
-1.240602433681488037e-01
8.482506871223449707e-02
-2.548582106828689575e-02
1.673217117786407471e-02
9.359085559844970703e-02
1.351386904716491699e-01
1.601956784725189209e-02
5.963027477264404297e-02
-7.844050228595733643e-02
2.306440472602844238e-02
2.200433164834976196e-01
1.500554755330085754e-02
-2.874681726098060608e-02
1.924549937248229980e-01
2.859465777873992920e-02
6.800233572721481323e-02
5.731505155563354492e-02
1.027479469776153564e-01
-9.609116613864898682e-02
3.366106376051902771e-02
-2.209570258855819702e-01
-4.355248995125293732e-03
6.521734595298767090e-02
-1.737645827233791351e-03
5.343786627054214478e-02
1.460539251565933228e-01
-1.631773412227630615e-01
1.102400571107864380e-01
-1.876232214272022247e-02
-1.013133581727743149e-02
-6.641307845711708069e-05
1.313372328877449036e-02
-6.228216364979743958e-02
-9.810923039913177490e-02
4.309497028589248657e-02
-2.614953219890594482e-01
1.852126121520996094e-01
1.856060922145843506e-01
4.671469330787658691e-02
1.838875114917755127e-01
7.823134958744049072e-02
6.210229173302650452e-02
1.966211572289466858e-02
-8.254745602607727051e-02
-1.704863458871841431e-01
-1.457595732063055038e-02
1.056647300720214844e-01
-7.899912074208259583e-03
1.643303632736206055e-01
7.840801030397415161e-02
