-8.198045194149017334e-02
7.436542958021163940e-02
4.564253985881805420e-02
-8.097395300865173340e-03
-6.475955992937088013e-02
-4.628271609544754028e-02
-3.743137046694755554e-02
-1.253679096698760986e-01
1.006544753909111023e-01
-1.657066643238067627e-01
2.326874881982803345e-01
-9.583821147680282593e-02
-2.395943254232406616e-01
-8.751322329044342041e-02
-3.691279329359531403e-03
1.237985044717788696e-01
-1.400537192821502686e-01
-1.200454384088516235e-01
-4.054190963506698608e-02
-1.012610364705324173e-02
7.758059352636337280e-02
5.242452956736087799e-03
-3.410651907324790955e-02
-1.665906514972448349e-03
-5.382399260997772217e-02
-3.698082864284515381e-01
-1.223121210932731628e-01
-9.032998979091644287e-02
4.073025286197662354e-02
-8.283215016126632690e-02
-1.100302413105964661e-01
5.441523343324661255e-02
-2.244827151298522949e-01
-9.777645766735076904e-02
-1.605563424527645111e-02
1.254944801330566406e-01
-2.227370068430900574e-02
2.625376358628273010e-02
1.342013776302337646e-01
1.351691596210002899e-02
-1.562242358922958374e-01
5.909706465899944305e-03
2.329667657613754272e-02
2.556386590003967285e-01
1.874139010906219482e-01
1.109414398670196533e-01
-1.792233251035213470e-02
-7.563549280166625977e-02
6.846308708190917969e-02
-1.322391778230667114e-01
7.664439082145690918e-02
1.612906455993652344e-01
1.064375638961791992e-01
1.467960476875305176e-01
-1.836273074150085449e-02
-1.318739056587219238e-01
3.847209736704826355e-02
4.995501041412353516e-02
-1.563051044940948486e-01
5.516277626156806946e-02
1.716271489858627319e-01
-1.027573496103286743e-01
-6.144309416413307190e-03
-3.504930995404720306e-03
3.168079257011413574e-01
1.743227802217006683e-02
-1.146915555000305176e-01
-1.391359269618988037e-01
1.428323686122894287e-01
-1.678150892257690430e-01
-7.161377370357513428e-02
1.753984950482845306e-03
-1.689953356981277466e-01
-1.290008574724197388e-01
-2.779558598995208740e-01
9.663943946361541748e-02
3.410058915615081787e-01
1.174497529864311218e-01
-1.710935086011886597e-01
4.275899380445480347e-02
-1.083566620945930481e-01
-2.534928917884826660e-02
1.714249849319458008e-01
9.586652368307113647e-02
5.247594788670539856e-02
1.694115623831748962e-02
-9.731610119342803955e-02
3.547428175806999207e-03
1.992848962545394897e-01
-4.035425186157226562e-02
-3.591277822852134705e-02
1.891357898712158203e-01
-5.234818533062934875e-02
6.463462114334106445e-02
5.682157725095748901e-02
1.269311644136905670e-02
-7.185184955596923828e-02
-1.496279425919055939e-02
-1.364981681108474731e-01
-1.977038010954856873e-02
6.668363697826862335e-03
-1.017235592007637024e-01
-5.918973311781883240e-02
1.193371862173080444e-01
-9.582837671041488647e-02
1.517904698848724365e-01
-1.443356275558471680e-02
7.175748050212860107e-02
-8.161365985870361328e-05
-1.418597809970378876e-02
-1.496640890836715698e-01
-8.923696726560592651e-02
1.257178485393524170e-01
-2.335625737905502319e-01
2.643165588378906250e-01
1.581494659185409546e-01
5.286103487014770508e-02
1.016158014535903931e-01
1.045007333159446716e-01
1.297002285718917847e-01
-1.062596589326858521e-02
-2.081308700144290924e-02
-2.359655648469924927e-01
-7.579170167446136475e-02
9.518329054117202759e-02
2.710070833563804626e-02
8.876120299100875854e-02
2.331284433603286743e-02
