-1.134427115321159363e-01
5.500226467847824097e-02
5.742240324616432190e-02
-1.037023365497589111e-01
-7.562883198261260986e-02
-2.238875720649957657e-03
-5.666407570242881775e-02
-1.652525961399078369e-01
1.068937778472900391e-01
-1.448179334402084351e-01
2.406400144100189209e-01
-7.886364310979843140e-02
-2.409413754940032959e-01
-1.330916732549667358e-01
-1.459546014666557312e-02
1.896276772022247314e-01
-1.730008721351623535e-01
-1.679361760616302490e-01
-6.819543242454528809e-02
-3.134515881538391113e-02
5.232257023453712463e-02
-1.940728724002838135e-02
3.453894052654504776e-03
6.539216637611389160e-02
-1.099606156349182129e-01
-4.155377149581909180e-01
-1.340346783399581909e-01
-7.868054509162902832e-02
2.125863917171955109e-03
-7.675070315599441528e-02
-4.518633335828781128e-02
-4.975534975528717041e-04
-2.319350540637969971e-01
-6.573775410652160645e-02
-6.061381846666336060e-02
1.406059265136718750e-01
6.513445172458887100e-03
-8.870428055524826050e-02
1.189209595322608948e-01
3.382463380694389343e-02
-2.033304423093795776e-01
2.980698645114898682e-02
7.132069021463394165e-02
1.953455358743667603e-01
1.767526268959045410e-01
1.362689435482025146e-01
5.200774967670440674e-02
-1.144428923726081848e-01
9.643048793077468872e-02
-1.725272983312606812e-01
9.182278811931610107e-02
4.730941727757453918e-02
7.374465465545654297e-02
6.265948712825775146e-02
1.509200315922498703e-02
-2.304655611515045166e-01
-3.589554689824581146e-03
1.609836071729660034e-01
-1.975884884595870972e-01
3.914616256952285767e-02
2.888195216655731201e-02
-7.068707048892974854e-02
-3.816585987806320190e-02
-5.634865537285804749e-02
2.968722879886627197e-01
1.854759007692337036e-01
-1.296540945768356323e-01
-1.106832623481750488e-01
2.132904529571533203e-01
-9.522995352745056152e-02
-6.376120448112487793e-02
1.068038959056138992e-02
-1.309284865856170654e-01
-1.295433193445205688e-01
-3.222019076347351074e-01
7.665888965129852295e-02
3.936316072940826416e-01
6.013051420450210571e-02
-2.207164913415908813e-01
-5.745474249124526978e-02
-2.845141850411891937e-02
4.234880208969116211e-02
1.595693379640579224e-01
1.340197920799255371e-01
-7.151506841182708740e-03
-4.266604781150817871e-02
-1.109641045331954956e-01
-4.487605765461921692e-03
1.686599850654602051e-01
1.507387310266494751e-02
-3.883801773190498352e-02
1.733957380056381226e-01
-3.919357806444168091e-02
8.729999512434005737e-02
4.377695173025131226e-02
1.248114407062530518e-01
-1.518718749284744263e-01
7.627867162227630615e-02
-1.388636976480484009e-01
-1.001841668039560318e-02
7.239361852407455444e-02
1.292792893946170807e-02
-3.339515626430511475e-02
1.000236421823501587e-01
-7.185944914817810059e-02
1.369732767343521118e-01
6.867826916277408600e-03
-1.891161501407623291e-02
-1.029305066913366318e-02
-3.777463734149932861e-02
-6.484286487102508545e-02
-2.596630342304706573e-02
1.152544096112251282e-01
-2.522201240062713623e-01
2.298442572355270386e-01
1.965744942426681519e-01
-2.456255629658699036e-02
1.870808601379394531e-01
1.219487190246582031e-01
1.248725354671478271e-01
-1.136179175227880478e-02
-5.641492083668708801e-02
-2.817684113979339600e-01
-4.157367721199989319e-02
1.240542903542518616e-01
-3.846122324466705322e-02
1.184273213148117065e-01
3.728482872247695923e-02
