sleep 10
./a.out rtmp://cctv.balitower.co.id:1935/Manggarai-Pintu-Air_1  mask.jpg | ffmpeg -f rawvideo -pixel_format bgr24 -video_size 480x360 -i - index.m3u8
ffmpeg version 3.4 Copyright (c) 2000-2017 the FFmpeg developers
  built with Apple LLVM version 9.0.0 (clang-900.0.37)
  configuration: --prefix=/usr/local/Cellar/ffmpeg/3.4 --enable-shared --enable-pthreads --enable-version3 --enable-hardcoded-tables --enable-avresample --cc=clang --host-cflags= --host-ldflags= --enable-gpl --enable-libmp3lame --enable-libx264 --enable-libxvid --enable-opencl --enable-videotoolbox --disable-lzma
  libavutil      55. 78.100 / 55. 78.100
  libavcodec     57.107.100 / 57.107.100
  libavformat    57. 83.100 / 57. 83.100
  libavdevice    57. 10.100 / 57. 10.100
  libavfilter     6.107.100 /  6.107.100
  libavresample   3.  7.  0 /  3.  7.  0
  libswscale      4.  8.100 /  4.  8.100
  libswresample   2.  9.100 /  2.  9.100
  libpostproc    54.  7.100 / 54.  7.100
sleep 10
./a.out rtmp://cctv.balitower.co.id:1935/Manggarai-Pintu-Air_1  mask.jpg | ffmpeg -f rawvideo -pixel_format bgr24 -video_size 480x360 -i - index.m3u8
ffmpeg version 3.4 Copyright (c) 2000-2017 the FFmpeg developers
  built with Apple LLVM version 9.0.0 (clang-900.0.37)
  configuration: --prefix=/usr/local/Cellar/ffmpeg/3.4 --enable-shared --enable-pthreads --enable-version3 --enable-hardcoded-tables --enable-avresample --cc=clang --host-cflags= --host-ldflags= --enable-gpl --enable-libmp3lame --enable-libx264 --enable-libxvid --enable-opencl --enable-videotoolbox --disable-lzma
  libavutil      55. 78.100 / 55. 78.100
  libavcodec     57.107.100 / 57.107.100
  libavformat    57. 83.100 / 57. 83.100
  libavdevice    57. 10.100 / 57. 10.100
  libavfilter     6.107.100 /  6.107.100
  libavresample   3.  7.  0 /  3.  7.  0
  libswscale      4.  8.100 /  4.  8.100
  libswresample   2.  9.100 /  2.  9.100
  libpostproc    54.  7.100 / 54.  7.100
nohup: list: No such file or directory
OpenCV Error: Assertion failed (0 <= roi.x && 0 <= roi.width && roi.x + roi.width <= m.cols && 0 <= roi.y && 0 <= roi.height && roi.y + roi.height <= m.rows) in Mat, file /tmp/opencv-20171112-69002-161xh9l/opencv-3.3.1/modules/core/src/matrix.cpp, line 538
libc++abi.dylib: terminating with uncaught exception of type cv::Exception: /tmp/opencv-20171112-69002-161xh9l/opencv-3.3.1/modules/core/src/matrix.cpp:538: error: (-215) 0 <= roi.x && 0 <= roi.width && roi.x + roi.width <= m.cols && 0 <= roi.y && 0 <= roi.height && roi.y + roi.height <= m.rows in function Mat

Input #0, rawvideo, from 'pipe:':
  Duration: N/A, bitrate: 103680 kb/s
    Stream #0:0: Video: rawvideo (BGR[24] / 0x18524742), bgr24, 480x360, 103680 kb/s, 25 tbr, 25 tbn, 25 tbc
Stream mapping:
  Stream #0:0 -> #0:0 (rawvideo (native) -> h264 (libx264))
Finishing stream 0:0 without any data written to it.
[libx264 @ 0x7fe441803200] using cpu capabilities: MMX2 SSE2Fast SSSE3 SSE4.2 AVX FMA3 AVX2 LZCNT BMI2
[libx264 @ 0x7fe441803200] profile High 4:4:4 Predictive, level 2.1, 4:4:4 8-bit
[libx264 @ 0x7fe441803200] 264 - core 148 r2795 aaa9aa8 - H.264/MPEG-4 AVC codec - Copyleft 2003-2017 - http://www.videolan.org/x264.html - options: cabac=1 ref=3 deblock=1:0:0 analyse=0x3:0x113 me=hex subme=7 psy=1 psy_rd=1.00:0.00 mixed_ref=1 me_range=16 chroma_me=1 trellis=1 8x8dct=1 cqm=0 deadzone=21,11 fast_pskip=1 chroma_qp_offset=4 threads=6 lookahead_threads=1 sliced_threads=0 nr=0 decimate=1 interlaced=0 bluray_compat=0 constrained_intra=0 bframes=3 b_pyramid=2 b_adapt=1 b_bias=0 direct=1 weightb=1 open_gop=0 weightp=2 keyint=250 keyint_min=25 scenecut=40 intra_refresh=0 rc_lookahead=40 rc=crf mbtree=1 crf=23.0 qcomp=0.60 qpmin=0 qpmax=69 qpstep=4 ip_ratio=1.40 aq=1:1.00
[hls @ 0x7fe441801200] Opening 'index0.ts' for writing
Output #0, hls, to 'index.m3u8':
  Metadata:
    encoder         : Lavf57.83.100
    Stream #0:0: Video: h264 (libx264), yuv444p, 480x360, q=-1--1, 25 fps, 90k tbn, 25 tbc
    Metadata:
      encoder         : Lavc57.107.100 libx264
    Side data:
      cpb: bitrate max/min/avg: 0/0/0 buffer size: 0 vbv_delay: -1
[hls @ 0x7fe441801200] Opening 'index.m3u8.tmp' for writing
frame=    0 fps=0.0 q=0.0 Lsize=N/A time=00:00:00.00 bitrate=N/A speed=   0x    
video:0kB audio:0kB subtitle:0kB other streams:0kB global headers:0kB muxing overhead: unknown
